Term frequency of tokens — step_texthash • textrecipes
…
library(recipes)

data(okc_text)

okc_rec <- recipe(~ ., data = okc_text) %>%
  step_tokenize(essay0) %>%
  step_tokenfilter(essay0, max_tokens = 10) %>%
  step_texthash(essay0)

okc_obj <- okc_rec %>%
  prep(training = okc_text, retain = TRUE)

bake(okc_obj, okc_text)
#> # A tibble: 750 x 1,033
#>    essay1 essay2 essay3 essay4 essay5 essay6 essay7 essay8 essay9
#>    <fct>  <fct>  <fct>  <fct>  <fct>  <fct>  <fct>  <fct>  <fct> 
#>  1 "i ju… "writ… "that… "musi… "frie… "roma… "usua… "i ha… "you'…
#>  2 eatin… "pick… "i lo… "non-… "dese… "ever… makin… this … "you'…
#>  3 "rais… "proc… "my s… "sush… "my c… "movi… "at h… "on m… "you …
#>  4 "i ju… "i've… my fa… "nove… "fami… how t… "havi… is th… you'd…
#>  5 i'm a… being… "that… "book… "- fr… "the … proba… "uhh.… you s…
#>  6 "i'm … "i'm … "the … "book… "guit… "a li… "hang… "i'm … "if y…
#>  7 "well… "well… "eith… "i do… "1) m… "the … "out … "i ow… "you …
#>  8 "i wo… "well… dimpl… "book… "1-la… "sex<… "depe… i lik… "you …
#>  9 photo… eatin… my gl… donni… sushi… love.  drink… hm...  .     
#> 10 "occu… "livi… long … "film… yuzu,… "menu… "ofte… but i… "you …
#> # ... with 740 more rows, and 1,024 more variables: essay0_hash0001 <dbl>,
#> #   essay0_hash0002 <dbl>, essay0_hash0003 <dbl>, essay0_hash0004 <dbl>,
#> #   essay0_hash0005 <dbl>, essay0_hash0006 <dbl>, essay0_hash0007 <dbl>,
#> #   essay0_hash0008 <dbl>, essay0_hash0009 <dbl>, essay0_hash0010 <dbl>,
#> #   essay0_hash0011 <dbl>, essay0_hash0012 <dbl>, essay0_hash0013 <dbl>,
#> #   essay0_hash0014 <dbl>, essay0_hash0015 <dbl>, essay0_hash0016 <dbl>,
#> #   essay0_hash0017 <dbl>, essay0_hash0018 <dbl>, essay0_hash0019 <dbl>,
#> #   essay0_hash0020 <dbl>, essay0_hash0021 <dbl>, essay0_hash0022 <dbl>,
#> #   essay0_hash0023 <dbl>, essay0_hash0024 <dbl>, essay0_hash0025 <dbl>,
…
