Generate the basic set of text features — step_textfeature • textrecipes
…
tidy(okc_rec, number = 1)
#> # A tibble: 1 x 3
#>   terms  functions id               
#>   <chr>  <chr>     <chr>            
#> 1 essay0 <NA>      textfeature_qZ3vE
tidy(okc_obj, number = 1)
#> # A tibble: 27 x 3
#>    terms  functions     id               
#>    <chr>  <chr>         <chr>            
#>  1 essay0 n_words       textfeature_qZ3vE
#>  2 essay0 n_uq_words    textfeature_qZ3vE
#>  3 essay0 n_charS       textfeature_qZ3vE
#>  4 essay0 n_uq_charS    textfeature_qZ3vE
#>  5 essay0 n_digits      textfeature_qZ3vE
#>  6 essay0 n_hashtags    textfeature_qZ3vE
#>  7 essay0 n_uq_hashtags textfeature_qZ3vE
#>  8 essay0 n_mentions    textfeature_qZ3vE
#>  9 essay0 n_uq_mentions textfeature_qZ3vE
#> 10 essay0 n_commas      textfeature_qZ3vE
#> # … with 17 more rows

# Using custom extraction functions
nchar_round_10 <- function(x) round(nchar(x) / 10) * 10

recipe(~ ., data = okc_text) %>%
  step_textfeature(essay0,
                   extract_functions = list(nchar10 = nchar_round_10)) %>%
  prep(training = okc_text) %>%
  juice()
#> # A tibble: 750 x 10
#>    essay1 essay2 essay3 essay4 essay5 essay6 essay7 essay8 essay9
#>    <fct>  <fct>  <fct>  <fct>  <fct>  <fct>  <fct>  <fct>  <fct> 
#>  1 "i ju… "writ… "that… "musi… "frie… "roma… "usua… "i ha… "you'…
#>  2 eatin… "pick… "i lo… "non-… "dese… "ever… makin… this … "you'…
#>  3 "rais… "proc… "my s… "sush… "my c… "movi… "at h… "on m… "you …
#>  4 "i ju… "i've… my fa… "nove… "fami… how t… "havi… is th… you'd…
#>  5 i'm a… being… "that… "book… "- fr… "the … proba… "uhh.… you s…
#>  6 "i'm … "i'm … "the … "book… "guit… "a li… "hang… "i'm … "if y…
#>  7 "well… "well… "eith… "i do… "1) m… "the … "out … "i ow… "you …
#>  8 "i wo… "well… dimpl… "book… "1-la… "sex<… "depe… i lik… "you …
#>  9 photo… eatin… my gl… donni… sushi… love.  drink… hm...  .     
#> 10 "occu… "livi… long … "film… yuzu,… "menu… "ofte… but i… "you …
#> # … with 740 more rows, and 1 more variable: textfeature_essay0_nchar10 <dbl>
…
