Generate the basic set of text features — step_tokenmerge • textrecipes
…
    Examples

library(recipes)

data(okc_text)

okc_rec <- recipe(~ ., data = okc_text) %>%
  step_tokenize(essay0, essay1) %>%
  step_tokenmerge(essay0, essay1)

okc_obj <- okc_rec %>%
  prep(training = okc_text, retain = TRUE)

juice(okc_obj)
#> # A tibble: 750 x 9
#>    essay2   essay3   essay4   essay5  essay6  essay7  essay8  essay9  tokenmerge
#>    <fct>    <fct>    <fct>    <fct>   <fct>   <fct>   <fct>   <fct>   <list>    
#>  1 "writin… "that i… "music:… "frien… "roman… "usual… "i hav… "you'r… <chr [240…
#>  2 "pickin… "i look… "non-fi… "deser… "every… making… this w… "you'r… <chr [28]>
#>  3 "procra… "my smi… "sushi,… "my ce… "movin… "at ho… "on ma… "you t… <chr [385…
#>  4 "i've b… my fash… "novels… "famil… how to… "havin… is tha… you'd … <chr [104…
#>  5 being h… "that w… "books … "- fri… "the u… probab… "uhh..… you sh… <chr [87]>
#>  6 "i'm re… "the wa… "books … "guita… "a lit… "hangi… "i'm p… "if yo… <chr [352…
#>  7 "well, … "either… "i don'… "1) my… "the e… "out w… "i own… "you a… <chr [374…
#>  8 "welll.… dimples… "book-t… "1-lau… "sex<b… "depen… i like… "you a… <chr [228…
#>  9 eating … my glas… donnie … sushi.… love.   drinki… hm...   .       <chr [5]> 
#> 10 "living… long ha… "films<… yuzu, … "menus… "often… but it… "you a… <chr [610…
#> # … with 740 more rows
…
