Generate the basic set of text features — step_sequence_onehot • textrecipes
…
    Examples

library(recipes)

data(okc_text)

okc_rec <- recipe(~ ., data = okc_text) %>%
  step_sequence_onehot(essay0)

okc_obj <- okc_rec %>%
  prep(training = okc_text, retain = TRUE)

juice(okc_obj)
#> # A tibble: 750 x 109
#>    essay1 essay2 essay3 essay4 essay5 essay6 essay7 essay8 essay9
#>    <fct>  <fct>  <fct>  <fct>  <fct>  <fct>  <fct>  <fct>  <fct> 
#>  1 "i ju… "writ… "that… "musi… "frie… "roma… "usua… "i ha… "you'…
#>  2 eatin… "pick… "i lo… "non-… "dese… "ever… makin… this … "you'…
#>  3 "rais… "proc… "my s… "sush… "my c… "movi… "at h… "on m… "you …
#>  4 "i ju… "i've… my fa… "nove… "fami… how t… "havi… is th… you'd…
#>  5 i'm a… being… "that… "book… "- fr… "the … proba… "uhh.… you s…
#>  6 "i'm … "i'm … "the … "book… "guit… "a li… "hang… "i'm … "if y…
#>  7 "well… "well… "eith… "i do… "1) m… "the … "out … "i ow… "you …
#>  8 "i wo… "well… dimpl… "book… "1-la… "sex<… "depe… i lik… "you …
#>  9 photo… eatin… my gl… donni… sushi… love.  drink… hm...  .     
#> 10 "occu… "livi… long … "film… yuzu,… "menu… "ofte… but i… "you …
#> # … with 740 more rows, and 100 more variables: seq1hot_essay0_1 <dbl>,
#> #   seq1hot_essay0_2 <dbl>, seq1hot_essay0_3 <dbl>, seq1hot_essay0_4 <dbl>,
#> #   seq1hot_essay0_5 <dbl>, seq1hot_essay0_6 <dbl>, seq1hot_essay0_7 <dbl>,
#> #   seq1hot_essay0_8 <dbl>, seq1hot_essay0_9 <dbl>, seq1hot_essay0_10 <dbl>,
#> #   seq1hot_essay0_11 <dbl>, seq1hot_essay0_12 <dbl>, seq1hot_essay0_13 <dbl>,
#> #   seq1hot_essay0_14 <dbl>, seq1hot_essay0_15 <dbl>, seq1hot_essay0_16 <dbl>,
#> #   seq1hot_essay0_17 <dbl>, seq1hot_essay0_18 <dbl>, seq1hot_essay0_19 <dbl>,
#> #   seq1hot_essay0_20 <dbl>, seq1hot_essay0_21 <dbl>, seq1hot_essay0_22 <dbl>,
#> #   seq1hot_essay0_23 <dbl>, seq1hot_essay0_24 <dbl>, seq1hot_essay0_25 <dbl>,
…
tidy(okc_rec, number = 1)
#> # A tibble: 1 x 3
#>   terms  key   id                   
#>   <chr>  <chr> <chr>                
#> 1 essay0 <NA>  sequence_onehot_SwlKL
tidy(okc_obj, number = 1)
#> # A tibble: 26 x 3
#>    terms  key   id                   
#>    <chr>  <chr> <chr>                
#>  1 essay0 a     sequence_onehot_SwlKL
#>  2 essay0 b     sequence_onehot_SwlKL
#>  3 essay0 c     sequence_onehot_SwlKL
#>  4 essay0 d     sequence_onehot_SwlKL
#>  5 essay0 e     sequence_onehot_SwlKL
#>  6 essay0 f     sequence_onehot_SwlKL
#>  7 essay0 g     sequence_onehot_SwlKL
#>  8 essay0 h     sequence_onehot_SwlKL
#>  9 essay0 i     sequence_onehot_SwlKL
#> 10 essay0 j     sequence_onehot_SwlKL
#> # … with 16 more rows
…
